Tramatic Brain Injury of Military Personnel
…
# Reading in and Tidying data 

```r
## read in the data
tbi_military <- readr::read_csv('https://raw.githubusercontent.com/rfordatascience/tidytuesday/master/data/2020/2020-03-24/tbi_military.csv')

## get it in plotable form
tbi_military %>%
filter(year %in% c("2011", "2012", "2013", "2014"), severity == "Severe") -> tidy_military

tidy_military
```

```
# A tibble: 40 x 5
   service   component severity diagnosed  year
   <chr>     <chr>     <chr>        <dbl> <dbl>
 1 Army      Active    Severe         155  2011
 2 Army      Guard     Severe          32  2011
 3 Army      Reserve   Severe          24  2011
 4 Navy      Active    Severe          24  2011
 5 Navy      Reserve   Severe           1  2011
 6 Air Force Active    Severe          25  2011
 7 Air Force Guard     Severe          NA  2011
 8 Air Force Reserve   Severe           2  2011
 9 Marines   Active    Severe          97  2011
10 Marines   Reserve   Severe          14  2011
# … with 30 more rows
```
…
